{
    "openapi": "3.0.0",
    "info": {
        "title": "Contest System API Documentation",
        "description": "Документация для контест системы",
        "version": "1.0.0"
    },
    "paths": {
        "/api/admin/courses": {
            "get": {
                "tags": [
                    "AdminCourses"
                ],
                "summary": "Получение курсов",
                "description": "Возвращает список курсов",
                "operationId": "0378533b4ec502c81eba48ba44871cb8",
                "responses": {
                    "200": {
                        "description": "Успех",
                        "content": {
                            "application/json": {
                                "schema": {
                                    "type": "array",
                                    "items": {
                                        "$ref": "#/components/schemas/Course"
                                    }
                                }
                            }
                        }
                    }
                },
                "security": [
                    {
                        "sanctum": []
                    }
                ]
            }
        },
        "/api/admin/courses/{course_id}/tasks": {
            "get": {
                "tags": [
                    "AdminCourses"
                ],
                "summary": "Получение задач курса",
                "description": "Возвращает список задач курса",
                "operationId": "7c57ae4871d4e0fe085c85c423d5de78",
                "parameters": [
                    {
                        "name": "course_id",
                        "in": "path",
                        "description": "Id курса",
                        "required": true,
                        "schema": {
                            "type": "number"
                        }
                    }
                ],
                "responses": {
                    "200": {
                        "description": "Успех",
                        "content": {
                            "application/json": {
                                "schema": {
                                    "type": "array",
                                    "items": {
                                        "$ref": "#/components/schemas/TaskInfo"
                                    }
                                }
                            }
                        }
                    }
                },
                "security": [
                    {
                        "sanctum": []
                    }
                ]
            }
        },
        "/api/admin/courses/{course_id}/groups": {
            "get": {
                "tags": [
                    "AdminCourses"
                ],
                "summary": "Получение групп курса",
                "description": "Возвращает список групп, которым назаначен курс",
                "operationId": "dc854db9f2197d0fb919cf4bd6b0811b",
                "parameters": [
                    {
                        "name": "course_id",
                        "in": "path",
                        "description": "Id курса",
                        "required": true,
                        "schema": {
                            "type": "number"
                        }
                    }
                ],
                "responses": {
                    "200": {
                        "description": "Успех",
                        "content": {
                            "application/json": {
                                "schema": {
                                    "type": "array",
                                    "items": {
                                        "$ref": "#/components/schemas/Group"
                                    }
                                }
                            }
                        }
                    }
                },
                "security": [
                    {
                        "sanctum": []
                    }
                ]
            }
        },
        "/api/admin/courses/{course_id}/users": {
            "get": {
                "tags": [
                    "AdminCourses"
                ],
                "summary": "Получение пользователей курса",
                "description": "Возвращает список пользователей, которым назаначен курс, вне группы",
                "operationId": "44f70366306dcd45e9e7dfdf750f2811",
                "parameters": [
                    {
                        "name": "course_id",
                        "in": "path",
                        "description": "Id курса",
                        "required": true,
                        "schema": {
                            "type": "number"
                        }
                    }
                ],
                "responses": {
                    "200": {
                        "description": "Успех",
                        "content": {
                            "application/json": {
                                "schema": {
                                    "type": "array",
                                    "items": {
                                        "$ref": "#/components/schemas/UserInfo"
                                    }
                                }
                            }
                        }
                    }
                },
                "security": [
                    {
                        "sanctum": []
                    }
                ]
            }
        },
        "/api/login": {
            "post": {
                "tags": [
                    "Auth"
                ],
                "summary": "Авторизация пользователя",
                "operationId": "a3b306d14572d1f4bd6c064b3233e7b8",
                "requestBody": {
                    "required": true,
                    "content": {
                        "application/json": {
                            "schema": {
                                "$ref": "#/components/schemas/Login"
                            }
                        }
                    }
                },
                "responses": {
                    "200": {
                        "description": "Успешный ответ",
                        "content": {
                            "application/json": {
                                "schema": {
                                    "$ref": "#/components/schemas/UserToken"
                                }
                            }
                        }
                    }
                }
            }
        },
        "/api/logout": {
            "post": {
                "tags": [
                    "Auth"
                ],
                "summary": "Разлогирование пользователя",
                "operationId": "fe8f3429cd6979b3b4517e186505f9f9",
                "responses": {
                    "204": {
                        "description": ""
                    }
                },
                "security": [
                    {
                        "sanctum": []
                    }
                ]
            }
        },
        "/api/courses": {
            "get": {
                "tags": [
                    "Courses"
                ],
                "summary": "Получение курсов",
                "description": "Возвращает список курсов",
                "operationId": "e419af2741a0de1dee6bf2d54d6f0e3f",
                "responses": {
                    "200": {
                        "description": "Успех",
                        "content": {
                            "application/json": {
                                "schema": {
                                    "type": "array",
                                    "items": {
                                        "$ref": "#/components/schemas/UserCourse"
                                    }
                                }
                            }
                        }
                    }
                },
                "security": [
                    {
                        "sanctum": []
                    }
                ]
            }
        },
        "/api/courses/{course_id}/tasks": {
            "get": {
                "tags": [
                    "Courses"
                ],
                "summary": "Получение задач",
                "description": "Возвращает список задач",
                "operationId": "b6ced565856aa6e55ff54523ff8d7ba6",
                "parameters": [
                    {
                        "name": "course_id",
                        "in": "path",
                        "description": "Id курса",
                        "required": true,
                        "schema": {
                            "type": "number"
                        }
                    }
                ],
                "responses": {
                    "200": {
                        "description": "Успех",
                        "content": {
                            "application/json": {
                                "schema": {
                                    "type": "array",
                                    "items": {
                                        "$ref": "#/components/schemas/UserTaskInfo"
                                    }
                                }
                            }
                        }
                    }
                },
                "security": [
                    {
                        "sanctum": []
                    }
                ]
            }
        },
        "/api/tasks/{task_id}": {
            "get": {
                "tags": [
                    "Tasks"
                ],
                "summary": "Получение задачи",
                "description": "Возвращает задачу",
                "operationId": "f12359d0a3c755740a1039129c4525bd",
                "parameters": [
                    {
                        "name": "task_id",
                        "in": "path",
                        "description": "Id задачи",
                        "required": true,
                        "schema": {
                            "type": "number"
                        }
                    }
                ],
                "responses": {
                    "200": {
                        "description": "Успех",
                        "content": {
                            "application/json": {
                                "schema": {
                                    "$ref": "#/components/schemas/UserTask"
                                }
                            }
                        }
                    }
                },
                "security": [
                    {
                        "sanctum": []
                    }
                ]
            }
        },
        "/api/check": {
            "post": {
                "tags": [
                    "Check"
                ],
                "summary": "Закинуть задачу на проверку",
                "operationId": "ba502c49c36cbd375cd92a691a7b1de4",
                "requestBody": {
                    "required": true,
                    "content": {
                        "application/json": {
                            "schema": {
                                "$ref": "#/components/schemas/CheckCode"
                            }
                        }
                    }
                },
                "responses": {
                    "204": {
                        "description": ""
                    }
                },
                "security": [
                    {
                        "sanctum": []
                    }
                ]
            }
        },
        "/api/user": {
            "get": {
                "tags": [
                    "User"
                ],
                "summary": "Получение информации о пользователе",
                "operationId": "22ea85303059d4f2d15556c1c9fd65d2",
                "responses": {
                    "200": {
                        "description": "Успешный ответ",
                        "content": {
                            "application/json": {
                                "schema": {
                                    "$ref": "#/components/schemas/User"
                                }
                            }
                        }
                    },
                    "401": {
                        "description": "Не авторизирован"
                    }
                },
                "security": [
                    {
                        "sanctum": []
                    }
                ]
            }
        }
    },
    "components": {
        "schemas": {
            "CheckCode": {
                "title": "Check",
                "description": "Check schema",
                "properties": {
                    "task_id": {
                        "type": "number"
                    },
                    "code": {
                        "type": "string"
                    },
                    "language": {
                        "type": "string",
                        "nullable": true
                    }
                },
                "type": "object",
                "xml": {
                    "name": "Check"
                }
            },
            "Course": {
                "title": "Course",
                "description": "Course schema",
                "properties": {
                    "id": {
                        "type": "number"
                    },
                    "name": {
                        "type": "string"
                    },
                    "count": {
                        "type": "number"
                    }
                },
                "type": "object",
                "xml": {
                    "name": "Course"
                }
            },
            "Group": {
                "title": "Group",
                "description": "Group schema",
                "properties": {
                    "id": {
                        "type": "number"
                    },
                    "name": {
                        "type": "string"
                    }
                },
                "type": "object",
                "xml": {
                    "name": "Group"
                }
            },
            "History": {
                "title": "History",
                "description": "History schema",
                "required": [
                    "id",
                    "code",
                    "status",
                    "score"
                ],
                "properties": {
                    "id": {
                        "type": "number"
                    },
                    "code": {
                        "type": "string"
                    },
                    "status": {
                        "type": "string",
                        "enum": [
                            "success",
                            "error",
                            "zero"
                        ]
                    },
                    "score": {
                        "type": "number"
                    },
                    "tests": {
                        "type": "array",
                        "items": {
                            "$ref": "#/components/schemas/ResultTest"
                        }
                    }
                },
                "type": "object",
                "xml": {
                    "name": "History"
                }
            },
            "Login": {
                "title": "Login",
                "description": "Login schema",
                "properties": {
                    "email": {
                        "type": "string"
                    },
                    "password": {
                        "type": "string"
                    }
                },
                "type": "object",
                "xml": {
                    "name": "Login"
                }
            },
            "ResultTest": {
                "title": "ResultTest",
                "description": "ResultTest model",
                "properties": {
                    "id": {
                        "type": "number"
                    },
                    "score": {
                        "type": "number"
                    },
                    "test_in": {
                        "type": "string",
                        "nullable": true
                    },
                    "test_out": {
                        "type": "string",
                        "nullable": true
                    }
                },
                "type": "object",
                "xml": {
                    "name": "ResultTest"
                }
            },
            "TaskInfo": {
                "title": "TaskInfo",
                "description": "TaskInfo schema",
                "properties": {
                    "id": {
                        "type": "number"
                    },
                    "description": {
                        "type": "string"
                    },
                    "rating": {
                        "type": "number"
                    },
                    "variant_count": {
                        "type": "number"
                    }
                },
                "type": "object",
                "xml": {
                    "name": "TaskInfo"
                }
            },
            "User": {
                "title": "User",
                "description": "User schema",
                "properties": {
                    "id": {
                        "type": "number"
                    },
                    "name": {
                        "type": "string"
                    },
                    "middle_name": {
                        "type": "string",
                        "nullable": true
                    },
                    "last_name": {
                        "type": "string",
                        "nullable": true
                    },
                    "email": {
                        "type": "string"
                    },
                    "vstu_id": {
                        "type": "string",
                        "nullable": true
                    },
                    "created_at": {
                        "type": "string"
                    },
                    "updated_at": {
                        "type": "string",
                        "nullable": true
                    },
                    "roles": {
                        "type": "array",
                        "items": {
                            "type": "string"
                        },
                        "nullable": true
                    },
                    "permissions": {
                        "type": "array",
                        "items": {
                            "type": "string"
                        },
                        "nullable": true
                    }
                },
                "type": "object",
                "xml": {
                    "name": "User"
                }
            },
            "UserCourse": {
                "title": "UserCourse",
                "description": "Course model",
                "properties": {
                    "id": {
                        "type": "number"
                    },
                    "name": {
                        "type": "string"
                    },
                    "count": {
                        "type": "number"
                    },
                    "success_count": {
                        "type": "number"
                    }
                },
                "type": "object",
                "xml": {
                    "name": "UserCourse"
                }
            },
            "UserInfo": {
                "title": "UserInfo",
                "description": "UserInfo schema",
                "properties": {
                    "id": {
                        "type": "number"
                    },
                    "name": {
                        "type": "string"
                    },
                    "middle_name": {
                        "type": "string"
                    },
                    "last_name": {
                        "type": "string"
                    },
                    "email": {
                        "type": "string"
                    },
                    "vstu_id": {
                        "type": "string"
                    }
                },
                "type": "object",
                "xml": {
                    "name": "UserInfo"
                }
            },
            "UserTask": {
                "title": "UserTask",
                "description": "UserTask model",
                "type": "object",
                "xml": {
                    "name": "UserTask"
                },
                "allOf": [
                    {
                        "$ref": "#/components/schemas/UserTaskInfo"
                    },
                    {
                        "properties": {
                            "id": {
                                "type": "number"
                            },
                            "description": {
                                "type": "string"
                            },
                            "rating": {
                                "type": "number"
                            },
                            "variant": {
                                "type": "number"
                            },
                            "status": {
                                "type": "string",
                                "enum": [
                                    "success",
                                    "error",
                                    "zero"
                                ]
                            },
                            "score": {
                                "type": "number"
                            },
                            "max_score": {
                                "type": "number"
                            },
                            "history": {
                                "type": "array",
                                "items": {
                                    "$ref": "#/components/schemas/History"
                                },
                                "nullable": true
                            }
                        },
                        "type": "object"
                    }
                ]
            },
            "UserTaskInfo": {
                "title": "UserTask",
                "description": "UserTask model",
                "properties": {
                    "id": {
                        "type": "number"
                    },
                    "description": {
                        "type": "string"
                    },
                    "rating": {
                        "type": "number"
                    },
                    "variant": {
                        "type": "number"
                    },
                    "status": {
                        "type": "string",
                        "enum": [
                            "success",
                            "error",
                            "zero"
                        ]
                    },
                    "score": {
                        "type": "number"
                    },
                    "max_score": {
                        "type": "number"
                    }
                },
                "type": "object",
                "xml": {
                    "name": "UserTask"
                }
            },
            "UserToken": {
                "title": "User",
                "description": "User schema",
                "type": "object",
                "xml": {
                    "name": "User"
                },
                "allOf": [
                    {
                        "$ref": "#/components/schemas/User"
                    },
                    {
                        "properties": {
                            "id": {
                                "type": "number"
                            },
                            "name": {
                                "type": "string"
                            },
                            "middle_name": {
                                "type": "string",
                                "nullable": true
                            },
                            "last_name": {
                                "type": "string",
                                "nullable": true
                            },
                            "email": {
                                "type": "string"
                            },
                            "vstu_id": {
                                "type": "string",
                                "nullable": true
                            },
                            "created_at": {
                                "type": "string"
                            },
                            "updated_at": {
                                "type": "string",
                                "nullable": true
                            },
                            "roles": {
                                "type": "array",
                                "items": {
                                    "type": "string"
                                },
                                "nullable": true
                            },
                            "permissions": {
                                "type": "array",
                                "items": {
                                    "type": "string"
                                },
                                "nullable": true
                            },
                            "token": {
                                "type": "string"
                            }
                        },
                        "type": "object"
                    }
                ]
            }
        },
        "securitySchemes": {
            "sanctum": {
                "type": "apiKey",
                "description": "Enter token in format (Bearer <token>)",
                "name": "Authorization",
                "in": "header"
            }
        }
    }
}