{
    "service": "ContestServer",
    "admin_key": "e86e915a-249f-4fdc-a48a-7c3f9a0b36ff",
    "db_info": {
        "host": "mysql",
        "user": "root",
        "password": "root",
        "database": "contest_system"
    },
    "languages": {
        "python": [
            "python3 #"
        ],
        "c#": [
            "csc # > /dev/null",
            "mono #.exe"
        ],
        "c": [
            "mv # #.c 2> /dev/null && gcc -o a.out #.c > /dev/null",
            "./a.out"
        ],
        "c++": [
            "mv # #.cpp 2> /dev/null && g++ -o a.out #.cpp > /dev/null",
            "./a.out"
        ]
    }
}
